10 10 10 2 
6 2 3 4 7 4 0 7 8 0 5 4 5 7 1 1 5 3 6 1 2 0 9 5 1 9 4 8 0 3 6 6 0 5 8 3 8 6 1 3 8 4 6 6 5 5 3 3 7 6 0 1 6 1 7 2 3 6 6 5 2 3 1 2 8 5 9 2 3 0 9 6 3 7 7 6 8 7 5 7 7 3 6 6 0 7 3 2 4 2 4 5 2 6 7 2 2 7 6 2 
0 9 4 3 7 8 4 0 7 1 6 4 0 5 5 1 6 9 3 0 
201 186 146 184 193 155 163 147 222 238 192 141 141 137 244 246 160 201 196 153
